[
  {
    "keyword": "Feature",
    "name": "Formulario de Experiencia Laboral",
    "tags": [
      {
        "name": "@BecaPresidenteDeLaRepublica"
      }
    ],
    "line": 1,
    "elements": [
      {
        "keyword": "Scenario",
        "name": "Registrar Experiencia con fecha menor al minimo grado",
        "line": 9,
        "type": "scenario",
        "tags": [],
        "steps": [
          {
            "keyword": "Given",
            "name": "Postulante registra experiencia con fecha menor al minimo grado",
            "line": 10,
            "result": {
              "status": "inconclusive",
              "duration": 1
            }
          },
          {
            "keyword": "Then",
            "name": "Sistema no permite registrar experiencia",
            "line": 11,
            "result": {
              "status": "inconclusive",
              "duration": 1
            }
          }
        ]
      },
      {
        "keyword": "Scenario",
        "name": "Registrar Experiencia con fecha igual al ultimo grado",
        "line": 13,
        "type": "scenario",
        "tags": [],
        "steps": [
          {
            "keyword": "Given",
            "name": "Postulante registra experiencia con fecha igual al minimo grado",
            "line": 14,
            "result": {
              "status": "inconclusive",
              "duration": 1
            }
          },
          {
            "keyword": "Then",
            "name": "Sistema permite registrar experiencia",
            "line": 15,
            "result": {
              "status": "inconclusive",
              "duration": 1
            }
          }
        ]
      },
      {
        "keyword": "Scenario",
        "name": "Editar Experiencia con fecha menor al ultimo grado",
        "line": 17,
        "type": "scenario",
        "tags": [],
        "steps": [
          {
            "keyword": "Given",
            "name": "Postulante edita experiencia con fecha menor al minimo grado",
            "line": 18,
            "result": {
              "status": "inconclusive",
              "duration": 1
            }
          },
          {
            "keyword": "Then",
            "name": "Sistema no permite editar experiencia",
            "line": 19,
            "result": {
              "status": "inconclusive",
              "duration": 1
            }
          }
        ]
      },
      {
        "keyword": "Scenario",
        "name": "Editar Experiencia con fecha igual al ultimo grado",
        "line": 21,
        "type": "scenario",
        "tags": [],
        "steps": [
          {
            "keyword": "Given",
            "name": "Postulante edita experiencia con fecha igual al minimo grado",
            "line": 22,
            "result": {
              "status": "inconclusive",
              "duration": 1
            }
          },
          {
            "keyword": "Then",
            "name": "Sistema permite editar experiencia",
            "line": 23,
            "result": {
              "status": "inconclusive",
              "duration": 1
            }
          }
        ]
      },
      {
        "keyword": "Scenario",
        "name": "Registrar Experiencia con fecha mayor al ultimo grado",
        "line": 25,
        "type": "scenario",
        "tags": [],
        "steps": [
          {
            "keyword": "Given",
            "name": "Postulante registra experiencia con fecha mayor al minimo grado",
            "line": 26,
            "result": {
              "status": "inconclusive",
              "duration": 1
            }
          },
          {
            "keyword": "Then",
            "name": "Sistema permite editar experiencia",
            "line": 27,
            "result": {
              "status": "inconclusive",
              "duration": 1
            }
          }
        ]
      },
      {
        "keyword": "Scenario",
        "name": "Editar Experiencia con fecha mayor al ultimo grado",
        "line": 29,
        "type": "scenario",
        "tags": [],
        "steps": [
          {
            "keyword": "Given",
            "name": "Postulante edita experiencia con fecha mayor al minimo grado",
            "line": 30,
            "result": {
              "status": "inconclusive",
              "duration": 1
            }
          },
          {
            "keyword": "Then",
            "name": "Sistema permite editar experiencia",
            "line": 31,
            "result": {
              "status": "inconclusive",
              "duration": 1
            }
          }
        ]
      }
    ]
  },
  {
    "keyword": "Feature",
    "name": "Formulario de Información Academica",
    "tags": [
      {
        "name": "@BecaPresidenteDeLaRepublica"
      }
    ],
    "line": 1,
    "elements": [
      {
        "keyword": "Scenario",
        "name": "Requisito minimo Bachiller",
        "line": 8,
        "type": "scenario",
        "tags": [],
        "steps": [
          {
            "keyword": "Given",
            "name": "Postulante registra bachiller como unica información academica",
            "line": 9,
            "result": {
              "status": "inconclusive",
              "duration": 1
            }
          },
          {
            "keyword": "When",
            "name": "Postulante da click en seguir",
            "line": 10,
            "result": {
              "status": "inconclusive",
              "duration": 1
            }
          },
          {
            "keyword": "Then",
            "name": "Sistema permite continuar",
            "line": 11,
            "result": {
              "status": "inconclusive",
              "duration": 1
            }
          }
        ]
      },
      {
        "keyword": "Scenario",
        "name": "Requisito minimo titulo tecnico profesional",
        "line": 13,
        "type": "scenario",
        "tags": [],
        "steps": [
          {
            "keyword": "Given",
            "name": "Postulante registra titulo tecnico profesional como unica información academica",
            "line": 14,
            "result": {
              "status": "inconclusive",
              "duration": 1
            }
          },
          {
            "keyword": "When",
            "name": "Postulante da click en seguir",
            "line": 15,
            "result": {
              "status": "inconclusive",
              "duration": 1
            }
          },
          {
            "keyword": "Then",
            "name": "Sistema permite continuar",
            "line": 16,
            "result": {
              "status": "inconclusive",
              "duration": 1
            }
          }
        ]
      },
      {
        "keyword": "Scenario",
        "name": "Requisito minimo Titulo Profesional",
        "line": 18,
        "type": "scenario",
        "tags": [],
        "steps": [
          {
            "keyword": "Given",
            "name": "Postulante registra Titulo Profesional como unica información academica",
            "line": 19,
            "result": {
              "status": "inconclusive",
              "duration": 1
            }
          },
          {
            "keyword": "When",
            "name": "Postulante da click en seguir",
            "line": 20,
            "result": {
              "status": "inconclusive",
              "duration": 1
            }
          },
          {
            "keyword": "Then",
            "name": "Sistema permite continuar",
            "line": 21,
            "result": {
              "status": "inconclusive",
              "duration": 1
            }
          }
        ]
      },
      {
        "keyword": "Scenario",
        "name": "Requisito minimo Licenciatura",
        "line": 23,
        "type": "scenario",
        "tags": [],
        "steps": [
          {
            "keyword": "Given",
            "name": "Postulante registra Licenciatura como unica información academica",
            "line": 24,
            "result": {
              "status": "inconclusive",
              "duration": 1
            }
          },
          {
            "keyword": "When",
            "name": "Postulante da click en seguir",
            "line": 25,
            "result": {
              "status": "inconclusive",
              "duration": 1
            }
          },
          {
            "keyword": "Then",
            "name": "Sistema permite continuar",
            "line": 26,
            "result": {
              "status": "inconclusive",
              "duration": 1
            }
          }
        ]
      },
      {
        "keyword": "Scenario",
        "name": "Requisito minimo Maestria",
        "line": 28,
        "type": "scenario",
        "tags": [],
        "steps": [
          {
            "keyword": "Given",
            "name": "Postulante registra Maestria como unica información academica",
            "line": 29,
            "result": {
              "status": "inconclusive",
              "duration": 1
            }
          },
          {
            "keyword": "When",
            "name": "Postulante da click en seguir",
            "line": 30,
            "result": {
              "status": "inconclusive",
              "duration": 1
            }
          },
          {
            "keyword": "Then",
            "name": "Sistema permite continuar",
            "line": 31,
            "result": {
              "status": "inconclusive",
              "duration": 1
            }
          }
        ]
      },
      {
        "keyword": "Scenario",
        "name": "Mas de un registro en información academica",
        "line": 33,
        "type": "scenario",
        "tags": [],
        "steps": [
          {
            "keyword": "Given",
            "name": "Postulante registra Bachiller como información academica",
            "line": 34,
            "result": {
              "status": "inconclusive",
              "duration": 1
            }
          },
          {
            "keyword": "And",
            "name": "Postulante registra Maestria como información academica",
            "line": 35,
            "result": {
              "status": "inconclusive",
              "duration": 1
            }
          },
          {
            "keyword": "When",
            "name": "Postulante da click en seguir",
            "line": 36,
            "result": {
              "status": "inconclusive",
              "duration": 1
            }
          },
          {
            "keyword": "Then",
            "name": "Sistema permite continuar",
            "line": 37,
            "result": {
              "status": "inconclusive",
              "duration": 1
            }
          }
        ]
      },
      {
        "keyword": "Scenario",
        "name": "Retornar a Editar registro unico una vez cargada experiencia laboral",
        "line": 39,
        "type": "scenario",
        "tags": [],
        "steps": [
          {
            "keyword": "Given",
            "name": "Postulante vuelve a la pantalla de información academica",
            "line": 40,
            "result": {
              "status": "inconclusive",
              "duration": 1
            }
          },
          {
            "keyword": "And",
            "name": "Postulante edita registro",
            "line": 41,
            "result": {
              "status": "inconclusive",
              "duration": 1
            }
          },
          {
            "keyword": "Then",
            "name": "Sistema no permite editar registro",
            "line": 42,
            "result": {
              "status": "inconclusive",
              "duration": 1
            }
          }
        ]
      },
      {
        "keyword": "Scenario",
        "name": "Retornar a Editar registros con menor fecha una vez cargada experiencia laboral",
        "line": 44,
        "type": "scenario",
        "tags": [],
        "steps": [
          {
            "keyword": "Given",
            "name": "Postulante vuelve a la pantalla de información academica",
            "line": 45,
            "result": {
              "status": "inconclusive",
              "duration": 1
            }
          },
          {
            "keyword": "When",
            "name": "Postulante edita registro con menor fecha",
            "line": 46,
            "result": {
              "status": "inconclusive",
              "duration": 1
            }
          },
          {
            "keyword": "Then",
            "name": "Sistema no permite editar registro",
            "line": 47,
            "result": {
              "status": "inconclusive",
              "duration": 1
            }
          },
          {
            "keyword": "Then",
            "name": "Postulante editar registro con mayor fecha",
            "line": 48,
            "result": {
              "status": "inconclusive",
              "duration": 1
            }
          },
          {
            "keyword": "And",
            "name": "Sistema permite editar registro",
            "line": 49,
            "result": {
              "status": "inconclusive",
              "duration": 1
            }
          }
        ]
      },
      {
        "keyword": "Scenario",
        "name": "Retornar a eliminar unico registro una vez cargada experienca laboral",
        "line": 51,
        "type": "scenario",
        "tags": [],
        "steps": [
          {
            "keyword": "Given",
            "name": "Postulante vuelve a la pantalla de información academica",
            "line": 52,
            "result": {
              "status": "inconclusive",
              "duration": 1
            }
          },
          {
            "keyword": "When",
            "name": "Postulante elimina unico registro",
            "line": 53,
            "result": {
              "status": "inconclusive",
              "duration": 1
            }
          },
          {
            "keyword": "Then",
            "name": "Sistema no permite eliminar registro",
            "line": 54,
            "result": {
              "status": "inconclusive",
              "duration": 1
            }
          },
          {
            "keyword": "And",
            "name": "Sistema muestra mensaje de advertencia",
            "line": 55,
            "result": {
              "status": "inconclusive",
              "duration": 1
            }
          }
        ]
      },
      {
        "keyword": "Scenario",
        "name": "Retornar a eliminar registros una vez cargada experienca laboral",
        "line": 57,
        "type": "scenario",
        "tags": [],
        "steps": [
          {
            "keyword": "Given",
            "name": "Postulante vuelve a la pantalla de información academica",
            "line": 58,
            "result": {
              "status": "inconclusive",
              "duration": 1
            }
          },
          {
            "keyword": "When",
            "name": "Postulante elimina registros exceptuando el de menor fecha",
            "line": 59,
            "result": {
              "status": "inconclusive",
              "duration": 1
            }
          },
          {
            "keyword": "Then",
            "name": "Sistema permite eliminar registros",
            "line": 60,
            "result": {
              "status": "inconclusive",
              "duration": 1
            }
          },
          {
            "keyword": "And",
            "name": "Sistema muestra mensaje confirmando eliminación",
            "line": 61,
            "result": {
              "status": "inconclusive",
              "duration": 1
            }
          }
        ]
      }
    ]
  },
  {
    "keyword": "Feature",
    "name": "Modulo de validación",
    "tags": [
      {
        "name": "@BecaPresidenteDeLaRepublica"
      }
    ],
    "line": 1,
    "elements": [
      {
        "keyword": "Scenario",
        "name": "Validar cabecera información general",
        "line": 12,
        "type": "scenario",
        "tags": [],
        "steps": [
          {
            "keyword": "Given",
            "name": "Se ingresa con el usuario y contraseña",
            "line": 13,
            "result": {
              "status": "inconclusive",
              "duration": 1
            }
          },
          {
            "keyword": "Then",
            "name": "Se verifica la cabecera de Información General",
            "line": 16,
            "result": {
              "status": "inconclusive",
              "duration": 1
            }
          }
        ]
      },
      {
        "keyword": "Scenario",
        "name": "Validar Información del programa al que postula",
        "line": 30,
        "type": "scenario",
        "tags": [],
        "steps": [
          {
            "keyword": "Given",
            "name": "Se ingresa con el usuario y contraseña",
            "line": 31,
            "result": {
              "status": "inconclusive",
              "duration": 1
            }
          },
          {
            "keyword": "Then",
            "name": "Se verifica la cabecera de Información General",
            "line": 34,
            "result": {
              "status": "inconclusive",
              "duration": 1
            }
          }
        ]
      },
      {
        "keyword": "Scenario",
        "name": "Validar requisitos y documentos obligatorios y opcionales",
        "line": 44,
        "type": "scenario",
        "tags": [],
        "steps": [
          {
            "keyword": "Then",
            "name": "Se verifica los documentos obligatorios",
            "line": 48,
            "result": {
              "status": "inconclusive",
              "duration": 1
            }
          },
          {
            "keyword": "Then",
            "name": "Se verifica los documentos opcionales",
            "line": 53,
            "result": {
              "status": "inconclusive",
              "duration": 1
            }
          }
        ]
      }
    ]
  },
  {
    "keyword": "Feature",
    "name": "CheckDashboardItems",
    "tags": [
      {
        "name": "@LoginFeatures"
      }
    ],
    "line": 1,
    "elements": [
      {
        "keyword": "Scenario",
        "name": "Verify TOTAL documents",
        "line": 13,
        "type": "scenario",
        "tags": [],
        "steps": [
          {
            "keyword": "Then",
            "name": "I verify if TOTAL is displayed",
            "line": 14,
            "result": {
              "status": "inconclusive",
              "duration": 1
            }
          }
        ]
      },
      {
        "keyword": "Scenario",
        "name": "Verify FACTURAS PENDIENTES PARA CANCELAR",
        "line": 16,
        "type": "scenario",
        "tags": [],
        "steps": [
          {
            "keyword": "Then",
            "name": "I verify if FACTURAS PENDIENTES PARA CANCELAR is displayed",
            "line": 17,
            "result": {
              "status": "inconclusive",
              "duration": 1
            }
          }
        ]
      },
      {
        "keyword": "Scenario",
        "name": "Verify BOLETAS PENDIENTES",
        "line": 19,
        "type": "scenario",
        "tags": [],
        "steps": [
          {
            "keyword": "Then",
            "name": "I verify if BOLETAS PENDIENTES is displayed",
            "line": 20,
            "result": {
              "status": "inconclusive",
              "duration": 1
            }
          }
        ]
      },
      {
        "keyword": "Scenario",
        "name": "Verify BOLETAS PENDIENTES PARA CANCELAR",
        "line": 22,
        "type": "scenario",
        "tags": [],
        "steps": [
          {
            "keyword": "Then",
            "name": "I verify if BOLETAS PENDIENTES PARA CANCELAR is displayed",
            "line": 23,
            "result": {
              "status": "inconclusive",
              "duration": 1
            }
          }
        ]
      },
      {
        "keyword": "Scenario",
        "name": "Verify Resumen por día",
        "line": 25,
        "type": "scenario",
        "tags": [],
        "steps": [
          {
            "keyword": "Then",
            "name": "I verify if Resumen por día is displayed",
            "line": 26,
            "result": {
              "status": "inconclusive",
              "duration": 1
            }
          }
        ]
      },
      {
        "keyword": "Scenario",
        "name": "Verify Resumen por tipo",
        "line": 28,
        "type": "scenario",
        "tags": [],
        "steps": [
          {
            "keyword": "Then",
            "name": "I verify if Resumen por tipo is displayed",
            "line": 29,
            "result": {
              "status": "inconclusive",
              "duration": 1
            }
          }
        ]
      },
      {
        "keyword": "Scenario",
        "name": "Verify Resumen por estado",
        "line": 31,
        "type": "scenario",
        "tags": [],
        "steps": [
          {
            "keyword": "Then",
            "name": "I verify if Resumen por estado is displayed",
            "line": 32,
            "result": {
              "status": "inconclusive",
              "duration": 1
            }
          }
        ]
      },
      {
        "keyword": "Scenario",
        "name": "Verify Notificaciones",
        "line": 34,
        "type": "scenario",
        "tags": [],
        "steps": [
          {
            "keyword": "Then",
            "name": "I verify if Notificaciones is displayed",
            "line": 35,
            "result": {
              "status": "inconclusive",
              "duration": 1
            }
          }
        ]
      }
    ]
  },
  {
    "keyword": "Feature",
    "name": "Feature2-UserFeature",
    "tags": [
      {
        "name": "@UserFeatures"
      }
    ],
    "line": 1,
    "elements": [
      {
        "keyword": "Scenario",
        "name": "Scenario1-User",
        "line": 13,
        "type": "scenario",
        "tags": [],
        "steps": [
          {
            "keyword": "Then",
            "name": "I click Users link",
            "line": 14,
            "result": {
              "status": "inconclusive",
              "duration": 1
            }
          },
          {
            "keyword": "Then",
            "name": "I click new user button",
            "line": 15,
            "result": {
              "status": "inconclusive",
              "duration": 1
            }
          },
          {
            "keyword": "Then",
            "name": "I enter the new user, password, confirm password",
            "line": 17,
            "result": {
              "status": "inconclusive",
              "duration": 1
            }
          },
          {
            "keyword": "And",
            "name": "I click Save button",
            "line": 18,
            "result": {
              "status": "inconclusive",
              "duration": 1
            }
          },
          {
            "keyword": "Then",
            "name": "I verify if the new user was created",
            "line": 19,
            "result": {
              "status": "inconclusive",
              "duration": 1
            }
          }
        ]
      },
      {
        "keyword": "Scenario",
        "name": "Scenario2-User",
        "line": 21,
        "type": "scenario",
        "tags": [],
        "steps": [
          {
            "keyword": "Then",
            "name": "I click Users link",
            "line": 22,
            "result": {
              "status": "inconclusive",
              "duration": 1
            }
          },
          {
            "keyword": "Then",
            "name": "I click new user button",
            "line": 23,
            "result": {
              "status": "inconclusive",
              "duration": 1
            }
          },
          {
            "keyword": "Then",
            "name": "I enter the new user, password, confirm password",
            "line": 25,
            "result": {
              "status": "inconclusive",
              "duration": 1
            }
          },
          {
            "keyword": "And",
            "name": "I click Save button",
            "line": 26,
            "result": {
              "status": "inconclusive",
              "duration": 1
            }
          },
          {
            "keyword": "Then",
            "name": "I verify if the new user was created",
            "line": 27,
            "result": {
              "status": "inconclusive",
              "duration": 1
            }
          }
        ]
      }
    ]
  },
  {
    "keyword": "Feature",
    "name": "LoginFeature",
    "tags": [
      {
        "name": "@LoginFeatures"
      }
    ],
    "line": 1,
    "elements": [
      {
        "keyword": "Scenario",
        "name": "Login with valid credentials",
        "line": 8,
        "type": "scenario",
        "tags": [],
        "steps": [
          {
            "keyword": "Then",
            "name": "I enter Ruc, User and Password",
            "line": 9,
            "result": {
              "status": "inconclusive",
              "duration": 1
            }
          },
          {
            "keyword": "Then",
            "name": "I click login button (success login)",
            "line": 12,
            "result": {
              "status": "inconclusive",
              "duration": 1
            }
          },
          {
            "keyword": "And",
            "name": "I ensure the Dashboard is opened",
            "line": 13,
            "result": {
              "status": "inconclusive",
              "duration": 1
            }
          },
          {
            "keyword": "Then",
            "name": "I should see the dashboard page with the user name",
            "line": 14,
            "result": {
              "status": "inconclusive",
              "duration": 1
            }
          }
        ]
      },
      {
        "keyword": "Scenario",
        "name": "Login with invalid credentials",
        "line": 18,
        "type": "scenario",
        "tags": [],
        "steps": [
          {
            "keyword": "Then",
            "name": "I enter Ruc, User and Password",
            "line": 19,
            "result": {
              "status": "inconclusive",
              "duration": 1
            }
          },
          {
            "keyword": "Then",
            "name": "I click login button (fail login)",
            "line": 22,
            "result": {
              "status": "inconclusive",
              "duration": 1
            }
          },
          {
            "keyword": "And",
            "name": "I should see the error message \"Credenciales no válidas.\"",
            "line": 23,
            "result": {
              "status": "inconclusive",
              "duration": 1
            }
          }
        ]
      }
    ]
  },
  {
    "keyword": "Feature",
    "name": "testFeature",
    "tags": [
      {
        "name": "@testScenario"
      }
    ],
    "line": 1,
    "elements": [
      {
        "keyword": "Scenario",
        "name": "Scenario1-User",
        "line": 13,
        "type": "scenario",
        "tags": [],
        "steps": [
          {
            "keyword": "Then",
            "name": "I click Users link",
            "line": 14,
            "result": {
              "status": "inconclusive",
              "duration": 1
            }
          }
        ]
      }
    ]
  }
]